{
    "21 03": [
        "61  03  16  54  E8"
    ],
    "21 C9": [
        "61  C9  2C  6D",
        "61  C9  2B  EB"
    ],
    "21 CB": [
        "61  CB  00  08",
        "61  CB  00  07"
    ],
    "21 CD": [
        "61  CD  1B  18",
        "61  CD  1B  1A"
    ],
    "21 CE": [
        "61  CE  04"
    ],
    "21 D2": [
        "61  D2  00"
    ],
    "21 D3": [
        "61  D3  33  E5"
    ],
    "21 D4": [
        "61  D4  00  00  07"
    ],
    "21 D6": [
        "61  D6  5B  B1"
    ],
    "21 D7": [
        "61  D7  00  76"
    ],
    "21 D8": [
        "61  D8  01  56"
    ],
    "21 D9": [
        "61  D9  00  00"
    ],
    "21 DA": [
        "61  DA  0B"
    ],
    "21 DC": [
        "61  DC  15  BB  7A"
    ],
    "21 DF": [
        "61  DF  00  00"
    ],
    "21 E0": [
        "61  E0  00  00"
    ]
}